%YAML 1.1
%TAG !u! tag:unity3d.com,2011:
--- !u!74 &7400000
AnimationClip:
  m_ObjectHideFlags: 0
  m_CorrespondingSourceObject: {fileID: 0}
  m_PrefabInstance: {fileID: 0}
  m_PrefabAsset: {fileID: 0}
  m_Name: OpeningPortal
  serializedVersion: 6
  m_Legacy: 0
  m_Compressed: 0
  m_UseHighQualityCurve: 1
  m_RotationCurves: []
  m_CompressedRotationCurves: []
  m_EulerCurves: []
  m_PositionCurves: []
  m_ScaleCurves: []
  m_FloatCurves: []
  m_PPtrCurves:
  - curve:
    - time: 0
      value: {fileID: 139064420081429815, guid: 1f8ffd55fa357534ca215a7fed41f3c5,
        type: 3}
    - time: 0.1
      value: {fileID: 6978282039444381009, guid: 1f8ffd55fa357534ca215a7fed41f3c5,
        type: 3}
    - time: 0.2
      value: {fileID: 678153424536773062, guid: 1f8ffd55fa357534ca215a7fed41f3c5,
        type: 3}
    - time: 0.3
      value: {fileID: -5960138624422440747, guid: 1f8ffd55fa357534ca215a7fed41f3c5,
        type: 3}
    - time: 0.4
      value: {fileID: -6344819477870848240, guid: 1f8ffd55fa357534ca215a7fed41f3c5,
        type: 3}
    - time: 0.5
      value: {fileID: -8316376279847158519, guid: 1f8ffd55fa357534ca215a7fed41f3c5,
        type: 3}
    - time: 0.6
      value: {fileID: -151792018445835599, guid: 1f8ffd55fa357534ca215a7fed41f3c5,
        type: 3}
    - time: 0.7
      value: {fileID: -7074590870780848266, guid: 1f8ffd55fa357534ca215a7fed41f3c5,
        type: 3}
    - time: 0.8
      value: {fileID: -7711509837034263032, guid: 1f8ffd55fa357534ca215a7fed41f3c5,
        type: 3}
    - time: 0.9
      value: {fileID: 778117215578715046, guid: 1f8ffd55fa357534ca215a7fed41f3c5,
        type: 3}
    - time: 1
      value: {fileID: 4199949828599100775, guid: 1f8ffd55fa357534ca215a7fed41f3c5,
        type: 3}
    - time: 1.1
      value: {fileID: 3984327880967104318, guid: 1f8ffd55fa357534ca215a7fed41f3c5,
        type: 3}
    - time: 1.2
      value: {fileID: -5079004809597494606, guid: 1f8ffd55fa357534ca215a7fed41f3c5,
        type: 3}
    - time: 1.3
      value: {fileID: 6588290157724503945, guid: 1f8ffd55fa357534ca215a7fed41f3c5,
        type: 3}
    - time: 1.4
      value: {fileID: 1764844788579341917, guid: 1f8ffd55fa357534ca215a7fed41f3c5,
        type: 3}
    - time: 1.5
      value: {fileID: 5009591359405945486, guid: 1f8ffd55fa357534ca215a7fed41f3c5,
        type: 3}
    - time: 1.6
      value: {fileID: 4922660045245297084, guid: 1f8ffd55fa357534ca215a7fed41f3c5,
        type: 3}
    - time: 1.7
      value: {fileID: -2930093004555821292, guid: 1f8ffd55fa357534ca215a7fed41f3c5,
        type: 3}
    attribute: m_Sprite
    path: 
    classID: 212
    script: {fileID: 0}
  m_SampleRate: 10
  m_WrapMode: 0
  m_Bounds:
    m_Center: {x: 0, y: 0, z: 0}
    m_Extent: {x: 0, y: 0, z: 0}
  m_ClipBindingConstant:
    genericBindings:
    - serializedVersion: 2
      path: 0
      attribute: 0
      script: {fileID: 0}
      typeID: 212
      customType: 23
      isPPtrCurve: 1
    pptrCurveMapping:
    - {fileID: 139064420081429815, guid: 1f8ffd55fa357534ca215a7fed41f3c5, type: 3}
    - {fileID: 6978282039444381009, guid: 1f8ffd55fa357534ca215a7fed41f3c5, type: 3}
    - {fileID: 678153424536773062, guid: 1f8ffd55fa357534ca215a7fed41f3c5, type: 3}
    - {fileID: -5960138624422440747, guid: 1f8ffd55fa357534ca215a7fed41f3c5, type: 3}
    - {fileID: -6344819477870848240, guid: 1f8ffd55fa357534ca215a7fed41f3c5, type: 3}
    - {fileID: -8316376279847158519, guid: 1f8ffd55fa357534ca215a7fed41f3c5, type: 3}
    - {fileID: -151792018445835599, guid: 1f8ffd55fa357534ca215a7fed41f3c5, type: 3}
    - {fileID: -7074590870780848266, guid: 1f8ffd55fa357534ca215a7fed41f3c5, type: 3}
    - {fileID: -7711509837034263032, guid: 1f8ffd55fa357534ca215a7fed41f3c5, type: 3}
    - {fileID: 778117215578715046, guid: 1f8ffd55fa357534ca215a7fed41f3c5, type: 3}
    - {fileID: 4199949828599100775, guid: 1f8ffd55fa357534ca215a7fed41f3c5, type: 3}
    - {fileID: 3984327880967104318, guid: 1f8ffd55fa357534ca215a7fed41f3c5, type: 3}
    - {fileID: -5079004809597494606, guid: 1f8ffd55fa357534ca215a7fed41f3c5, type: 3}
    - {fileID: 6588290157724503945, guid: 1f8ffd55fa357534ca215a7fed41f3c5, type: 3}
    - {fileID: 1764844788579341917, guid: 1f8ffd55fa357534ca215a7fed41f3c5, type: 3}
    - {fileID: 5009591359405945486, guid: 1f8ffd55fa357534ca215a7fed41f3c5, type: 3}
    - {fileID: 4922660045245297084, guid: 1f8ffd55fa357534ca215a7fed41f3c5, type: 3}
    - {fileID: -2930093004555821292, guid: 1f8ffd55fa357534ca215a7fed41f3c5, type: 3}
  m_AnimationClipSettings:
    serializedVersion: 2
    m_AdditiveReferencePoseClip: {fileID: 0}
    m_AdditiveReferencePoseTime: 0
    m_StartTime: 0
    m_StopTime: 1.8000001
    m_OrientationOffsetY: 0
    m_Level: 0
    m_CycleOffset: 0
    m_HasAdditiveReferencePose: 0
    m_LoopTime: 0
    m_LoopBlend: 0
    m_LoopBlendOrientation: 0
    m_LoopBlendPositionY: 0
    m_LoopBlendPositionXZ: 0
    m_KeepOriginalOrientation: 0
    m_KeepOriginalPositionY: 1
    m_KeepOriginalPositionXZ: 0
    m_HeightFromFeet: 0
    m_Mirror: 0
  m_EditorCurves: []
  m_EulerEditorCurves: []
  m_HasGenericRootTransform: 0
  m_HasMotionFloatCurves: 0
  m_Events:
  - time: 1.6
    functionName: startSpawning
    data: 
    objectReferenceParameter: {fileID: 0}
    floatParameter: 0
    intParameter: 0
    messageOptions: 0
